ID,Type,Project,Project ID,Assignee,Assignee ID,Priority,Label,Label ID,Category,Category ID,Milestone,Milestone ID,Created On,Created By,Created By ID,Due On,Completed On,Completed By,Completed By ID,Name,Task ID,Estimated Time,Estimated Job Type,Tracked Time
909,Task,General HR Activities,40,Saira M.,50,2,INPROGRESS,8,Recruitment,167,,0,2012-11-22 23:08:45,M. Ali N.,14,2012-12-06,,,,Hire Android Developer,1,,,3
1281,Task,BD - App Services - Greater Toronto Area,65,Zehra J.,49,1,NEW,1,General,355,,0,2012-12-05 17:08:06,M. Ali N.,14,2012-12-06,,,,Identify next steps and action plan,1,,,
1190,Task,General HR Activities,40,Saira M.,50,0,INPROGRESS,8,Recruitment,167,,0,2012-12-01 21:59:19,M. Ali N.,14,2012-12-06,,,,Schedule interviews for Microsoft Business Intelligence Consultants,5,,,
1209,Task,App Services - BD Activities,44,Zehra J.,49,0,NEW,1,Case Studies,322,,0,2012-12-03 19:36:20,M. Ali N.,14,2012-12-06,,,,New Case Studies,16,,,
1257,Task,Kotaro,35,Anas A.,31,0,FIXED,9,Customer Admin,349,Kotaro Phase 2 - Admin Panel (Consumer) P-1,1149,2012-12-05 02:15:39,Shan R.,48,2012-12-06,,,,List of Users,30,4,1,4
1258,Task,Kotaro,35,Shan R.,48,0,FIXED,9,Customer Admin,349,Kotaro Phase 2 - Admin Panel (Consumer) P-1,1149,2012-12-05 02:23:35,Shan R.,48,2012-12-06,,,,Create New User,31,,,4
1285,Task,App Services - BD Activities,44,Zehra J.,49,0,NEW,1,,0,,0,2012-12-05 18:04:23,M. Ali N.,14,2012-12-06,,,,Data Oceans Healthcare solution Demo,20,,,
1287,Task,Projectier,48,M. Ali N.,14,0,NEW,1,,0,Projectier - QA Initiatives,1286,2012-12-05 18:57:00,M. Ali N.,14,2012-12-06,,,,Initial Meeting - QA Vision @ 5:30 pm,12,,,
