22:25:55.000000 07.01.2014 Game is updated of api id :5470 
22:25:55.000000 07.01.2014 Game is updated of api id :19846 
22:25:56.000000 07.01.2014 Game is updated of api id :19847 
22:25:56.000000 07.01.2014 Game is updated of api id :20016 
22:25:56.000000 07.01.2014 Game is updated of api id :22095 
22:25:56.000000 07.01.2014 Game is updated of api id :22096 
22:25:57.000000 07.01.2014 Game is updated of api id :22097 
22:25:57.000000 07.01.2014 Game is updated of api id :22098 
22:25:57.000000 07.01.2014 Game is updated of api id :22099 
22:25:57.000000 07.01.2014 Game is updated of api id :22100 
22:25:58.000000 07.01.2014 Game is updated of api id :22101 
22:25:58.000000 07.01.2014 Game is updated of api id :22102 


--------------------------Completed---------------------------------------------

