ProductID|CertID|Cert|CertDescription|CertType
21422|45|PEGI_3_New|PEGI 3|PEGI_Age_New
21422|45|PEGI_3_New|PEGI 3|PEGI_Age_New
22090|45|PEGI_3_New|PEGI 3|PEGI_Age_New
22091|45|PEGI_3_New|PEGI 3|PEGI_Age_New
